// Jest Snapshot v1, https://goo.gl/fbAQLP

exports[`renders a snapshot 1`] = `
<div
  className="container"
>
  <button
    className="btn btn-default"
    disabled={false}
    onClick={[Function]}
    type="button"
  >
    logOut
  </button>
  <input
    className="form-control"
    id={undefined}
    onChange={[Function]}
    type={undefined}
    value=""
  />
  <button
    className="btn btn-default"
    disabled={false}
    onClick={[Function]}
    type="button"
  >
    Save
  </button>
</div>
`;
